…
library(tidyverse)
library(prophet)

Import data

I was able to get the ride wait time data from the folks at touringplans.com.

df <- read_csv(here::here("data_files/flight_of_passage.csv")) 

df

## # A tibble: 122,247 x 4
##    date       datetime            SPOSTMIN SACTMIN
##    <chr>      <dttm>                 <dbl>   <dbl>
##  1 05/26/2017 2017-05-26 09:06:38     -999      NA
##  2 05/26/2017 2017-05-26 09:10:12        5      NA
##  3 05/26/2017 2017-05-26 09:17:09       60      NA
##  4 05/26/2017 2017-05-26 09:24:07       60      NA
##  5 05/26/2017 2017-05-26 09:30:10       60      NA
##  6 05/26/2017 2017-05-26 09:38:10       45      NA
##  7 05/26/2017 2017-05-26 09:45:32       45      NA
##  8 05/26/2017 2017-05-26 09:53:14       45      NA
##  9 05/26/2017 2017-05-26 09:10:11       NA      47
## 10 05/26/2017 2017-05-26 09:59:07       45      NA
## # … with 122,237 more rows

Data cleaning

Prophet requires a datetime column labeled ds and numerical y column. We can clean up the data by filtering out missing values and times when the ride was closed indicated by -999.

df2 <- df %>% 
  select(ds = datetime, y = SPOSTMIN,-date,-SACTMIN) %>% 
  filter(!y %in% c(-999) &
           !is.na(y))

df2

## # A tibble: 115,279 x 2
##    ds                      y
##    <dttm>              <dbl>
##  1 2017-05-26 09:10:12     5
##  2 2017-05-26 09:17:09    60
##  3 2017-05-26 09:24:07    60
##  4 2017-05-26 09:30:10    60
##  5 2017-05-26 09:38:10    45
##  6 2017-05-26 09:45:32    45
##  7 2017-05-26 09:53:14    45
##  8 2017-05-26 09:59:07    45
##  9 2017-05-26 10:17:07    45
## 10 2017-05-26 10:24:08    55
## # … with 115,269 more rows
…
