…
We can use the tidyquant package to get the ICSA (Initial claims, seasonally adjusted) economic data from the most recent unemployment claims since the onset of the Coronavirus pandemic. We can use tq_get() to select the data that we want starting from 1967.

library(tidyverse)
library(tidyquant) 
library(lubridate)
library(scales) 

data_raw <- tq_get("ICSA",
                   get = "economic.data",  
                   from = "1967-01-07") 

data_raw

## # A tibble: 2,777 x 3
##    symbol date        price
##    <chr>  <date>      <int>
##  1 ICSA   1967-01-07 208000
##  2 ICSA   1967-01-14 207000
##  3 ICSA   1967-01-21 217000
##  4 ICSA   1967-01-28 204000
##  5 ICSA   1967-02-04 216000
##  6 ICSA   1967-02-11 229000
##  7 ICSA   1967-02-18 229000
##  8 ICSA   1967-02-25 242000
##  9 ICSA   1967-03-04 310000
## 10 ICSA   1967-03-11 241000
## # … with 2,767 more rows

Data wrangling

We can then get the ICSA data and filter from 2000 and later. Then we can rename the price to something that makes more sense like claim_no.

claims_no <- data_raw %>% 
  filter(symbol == "ICSA" &
           date >= "2000-01-01") %>% 
  rename(claim_no = price)

claims_no

## # A tibble: 1,056 x 3
##    symbol date       claim_no
##    <chr>  <date>        <int>
##  1 ICSA   2000-01-01   286000
##  2 ICSA   2000-01-08   298000
##  3 ICSA   2000-01-15   289000
##  4 ICSA   2000-01-22   284000
##  5 ICSA   2000-01-29   285000
##  6 ICSA   2000-02-05   312000
##  7 ICSA   2000-02-12   300000
##  8 ICSA   2000-02-19   283000
##  9 ICSA   2000-02-26   280000
## 10 ICSA   2000-03-04   286000
## # … with 1,046 more rows
…
